Seth Harris Data Analysis Portfolio - CDC Data Exploration on Weekly United States Hospitalization Metrics by Jurisdiction
…
This histogram shows the distribution of Weekly Average ICU Beds Occupied. The distribution is skewed towards lower numbers, with most jurisdictions reporting fewer than 500 ICU beds occupied per week.

This histogram also shows a right-skewed distribution, indicating that the majority of jurisdictions have a lower weekly average of ICU beds occupied. The distribution is similar to that of inpatient beds but with ICU-specific data.

# Summary of categorical variable 'Geographic aggregation'
geo_summary <- selected_data %>%
  group_by(`Geographic aggregation`) %>%
  summarise(count = n()) %>%
  arrange(desc(count))

geo_summary

# A tibble: 57 × 2
   `Geographic aggregation` count
   <chr>                    <int>
 1 AK                         203
 2 AL                         203
 3 AR                         203
 4 AS                         203
 5 AZ                         203
 6 CA                         203
 7 CO                         203
 8 CT                         203
 9 DC                         203
10 DE                         203
# ℹ 47 more rows
…
